…
x, y            

 x, y   (  ) ( ) 

mutate()  (filter()     )

diamonds_ok2 <- mutate(diamonds_ok,
                       sym = x - y,
                       # ()  : sam .
                       size = sqrt(x ^ 2 + y ^ 2)
)
diamonds_ok2

## # A tibble: 53,930 x 12
##    carat cut    color clarity depth table price     x     y     z      sym
##    <dbl> <ord>  <ord> <ord>   <dbl> <dbl> <int> <dbl> <dbl> <dbl>    <dbl>
##  1 0.23  Ideal  E     SI2      61.5    55   326  3.95  3.98  2.43 -0.0300 
##  2 0.21  Premi E     SI1      59.8    61   326  3.89  3.84  2.31  0.05   
##  3 0.23  Good   E     VS1      56.9    65   327  4.05  4.07  2.31 -0.02   
##  4 0.290 Premi I     VS2      62.4    58   334  4.2   4.23  2.63 -0.03   
##  5 0.31  Good   J     SI2      63.3    58   335  4.34  4.35  2.75 -0.01000
##  6 0.24  Very  J     VVS2     62.8    57   336  3.94  3.96  2.48 -0.02   
##  7 0.24  Very  I     VVS1     62.3    57   336  3.95  3.98  2.47 -0.0300 
##  8 0.26  Very  H     SI1      61.9    55   337  4.07  4.11  2.53 -0.04   
##  9 0.22  Fair   E     VS2      65.1    61   337  3.87  3.78  2.49  0.09   
## 10 0.23  Very  H     VS1      59.4    61   338  4     4.05  2.39 -0.0500 
## # ... with 53,920 more rows, and 1 more variable: size <dbl>
…
     !!!(112  )

      group_by()               * n() : .     

cut_depth <- summarise(group_by(diamonds, cut, depth), n = n())
cut_depth <- filter(cut_depth, depth > 55, depth < 70)
cut_depth

## # A tibble: 455 x 3
## # Groups:   cut [5]
##    cut   depth     n
##    <ord> <dbl> <int>
##  1 Fair   55.1     3
##  2 Fair   55.2     6
##  3 Fair   55.3     5
##  4 Fair   55.4     2
##  5 Fair   55.5     3
##  6 Fair   55.6     4
##  7 Fair   55.8     7
##  8 Fair   55.9     9
##  9 Fair   56       5
## 10 Fair   56.1     5
## # ... with 445 more rows
…
    summarise(
      group_by(
        diamonds,
        cut,
        depth
      ),
      n = n()
    ),
    depth > 55,
    depth < 70
  ),
  prop = n / sum(n)
)

## # A tibble: 455 x 4
## # Groups:   cut [5]
##    cut   depth     n    prop
##    <ord> <dbl> <int>   <dbl>
##  1 Fair   55.1     3 0.00192
##  2 Fair   55.2     6 0.00384
##  3 Fair   55.3     5 0.00320
##  4 Fair   55.4     2 0.00128
##  5 Fair   55.5     3 0.00192
##  6 Fair   55.6     4 0.00256
##  7 Fair   55.8     7 0.00448
##  8 Fair   55.9     9 0.00575
##  9 Fair   56       5 0.00320
## 10 Fair   56.1     5 0.00320
## # ... with 445 more rows
…
